sizex	sizey								
10	15								
Char	3								
Ene	3								
Goal	Eliminate								
M	M	M	M	M	M	M	M	M	M
M	F	F	F	F	F	F	F	F	M
M	F	F	F	F	F	F	F	F	M
M	F	E3T	F	E3T	F	E3T	F	F	M
M	F	F	F	F	F	F	F	F	M
M	F	F	F	F	F	F	M	M	M
M	F	F	F	F	F	F	M	M	M
M	F	F	F	F	F	F	F	F	M
M	M	M	F	F	F	F	F	F	M
M	M	M	F	F	F	F	F	F	M
M	F	F	F	F	F	F	F	F	M
M	F	F	C1	F	C3	F	F	F	M
M	F	F	F	S	F	F	F	F	M
M	F	F	F	C2	F	F	F	F	M
M	M	M	M	M	M	M	M	M	M
MapSprite									
9	9	9	9	9	9	9	9	9	9
9	0	0	0	0	0	12	13	0	9
9	10	11	0	0	0	22	23	0	9
9	20	21	0	0	0	0	0	0	9
9	0	0	0	0	0	0	0	0	9
9	0	0	0	0	0	0	42	43	9
9	0	5	0	0	0	0	52	53	9
9	0	0	6	0	0	0	0	0	9
9	7	34	0	0	0	0	0	0	9
9	30	35	0	0	0	0	1	0	9
9	0	0	4	0	0	0	0	0	9
9	0	3	0	0	0	2	0	0	9
9	0	0	0	0	0	0	0	0	9
9	0	0	0	0	0	0	0	0	9
9	9	9	9	9	9	9	9	9	9
SpecialBlock									
N	N	N	N	N	N	N	N	N	N
N	N	N	N	N	N	N	N	N	N
N	N	N	N	N	N	N	N	N	N
N	N	N	N	N	N	N	N	N	N
N	N	N	N	N	N	N	N	N	N
N	N	N	N	N	N	N	N	N	N
N	N	N	N	N	N	N	N	N	N
N	N	N	N	N	N	N	N	N	N
N	N	N	N	N	N	N	N	N	N
N	N	N	N	N	N	N	N	N	N
N	N	N	N	N	N	N	N	N	N
N	N	N	N	N	N	N	N	N	N
N	N	N	N	N	N	N	N	N	N
N	N	N	N	N	N	N	N	N	N
N	N	N	N	N	N	N	N	N	N
