sizex	sizey																		
20	20																		
Char	3																		
Ene	-1																		
Goal	Eliminate																		
M	M	M	M	M	M	M	M	M	M	M	M	M	M	M	M	M	M	M	M
M	M	F	F	F	F	F	F	F	E4F	F	F	M	F	F	F	F	C2	F	M
M	F	F	F	F	F	F	F	F	F	F	F	F	F	F	F	S	F	C3	M
M	F	F	F	F	F	F	E8F	F	M	F	E1F	F	F	F	F	F	C1	F	M
M	F	F	F	M	M	M	M	M	M	M	M	M	M	M	M	M	M	M	M
M	F	F	F	M	M	M	M	M	M	M	M	M	M	M	M	M	M	M	M
M	F	F	M	M	M	M	M	M	M	M	M	M	M	M	M	M	M	M	M
M	F	F	F	M	M	M	M	M	M	M	M	M	M	M	M	M	M	M	M
M	F	F	F	F	F	E8F	F	F	F	F	F	F	F	F	F	F	F	M	M
M	F	F	F	F	F	F	F	F	F	F	F	F	F	F	F	F	F	F	M
M	F	F	F	E1F	F	F	F	E4F	F	F	F	M	E1F	F	F	F	F	F	M
M	M	M	M	M	M	M	M	M	M	M	M	M	M	M	M	F	F	F	M
M	M	M	M	M	M	M	M	M	M	M	M	M	M	M	M	F	F	M	M
M	M	M	M	M	M	M	M	M	M	M	M	M	M	M	M	F	F	F	M
M	M	M	M	M	M	M	M	M	M	M	M	M	M	M	M	F	F	F	M
F	F	F	F	F	E8F	F	F	F	F	M	F	F	F	F	E8F	F	F	F	M
F	F	F	F	F	F	F	F	F	F	F	F	F	F	F	F	F	F	F	M
F	F	F	E1F	F	F	F	E4F	M	F	F	F	F	E4F	F	F	F	F	F	M
M	M	M	M	M	M	M	M	M	M	M	M	M	M	M	M	M	M	M	M
M	M	M	M	M	M	M	M	M	M	M	M	M	M	M	M	M	M	M	M
MapSprite																			
130	130	130	130	130	130	130	130	130	130	130	130	130	130	130	130	130	130	130	130
130	147	140	140	140	140	140	140	140	140	141	140	143	140	140	140	140	140	142	130
130	80	80	80	81	80	80	80	80	80	80	80	80	80	80	82	80	80	80	130
130	80	80	80	80	80	80	80	80	91	80	80	80	80	80	80	80	80	80	130
130	82	80	80	121	120	120	120	120	120	121	120	120	120	120	121	120	120	121	130
130	80	80	80	85	86	85	85	87	85	85	85	85	85	85	85	85	87	85	130
130	80	80	90	85	85	85	85	85	88	85	85	86	85	85	85	85	85	85	130
130	80	80	80	110	110	110	111	110	110	110	110	112	110	110	110	111	110	112	130
130	83	80	83	80	80	80	80	80	92	80	80	80	80	81	80	80	80	94	130
130	80	80	80	80	80	83	80	80	80	82	80	80	80	80	80	82	80	80	130
130	80	81	80	80	80	80	80	80	80	80	80	100	80	80	80	80	80	80	130
130	120	120	121	120	120	120	120	120	120	120	120	121	120	120	120	80	80	80	130
130	85	86	85	85	85	85	85	85	87	85	85	85	85	85	85	80	80	91	130
130	88	85	85	85	87	85	85	85	85	85	85	85	85	88	85	92	80	80	130
130	110	110	110	111	112	110	110	110	111	110	111	112	110	110	110	83	80	80	130
150	167	80	80	81	80	82	80	80	80	94	80	80	80	80	81	80	80	80	130
150	167	80	80	80	80	80	80	80	80	80	80	80	80	80	80	80	80	81	130
150	167	80	80	80	80	80	80	93	80	80	80	80	83	80	80	80	80	80	130
130	130	130	130	130	130	130	130	130	130	130	130	130	130	130	130	130	130	130	130
130	130	130	130	130	130	130	130	130	130	130	130	130	130	130	130	130	130	130	130
SpecialBlock																			
N	N	N	N	N	N	N	N	N	N	N	N	N	N	N	N	N	N	N	N
N	N	N	N	N	N	N	N	N	N	N	N	N	N	N	N	N	N	N	N
N	N	N	N	N	N	N	N	N	N	N	N	N	N	N	N	N	N	N	N
N	N	N	N	N	N	N	N	N	N	N	N	N	N	N	N	N	N	N	N
N	N	N	N	N	N	N	N	N	N	N	N	N	N	N	N	N	N	N	N
N	N	N	N	N	N	N	N	N	N	N	N	N	N	N	N	N	N	N	N
N	N	N	N	N	N	N	N	N	N	N	N	N	N	N	N	N	N	N	N
N	N	N	N	N	N	N	N	N	N	N	N	N	N	N	N	N	N	N	N
N	N	N	N	N	N	N	N	N	N	N	N	N	N	N	N	N	N	N	N
N	N	N	N	N	N	N	N	N	N	N	N	N	N	N	N	N	N	N	N
N	N	N	N	N	N	N	N	N	N	N	N	N	N	N	N	N	N	N	N
N	N	N	N	N	N	N	N	N	N	N	N	N	N	N	N	N	N	N	N
N	N	N	N	N	N	N	N	N	N	N	N	N	N	N	N	N	N	N	N
N	N	N	N	N	N	N	N	N	N	N	N	N	N	N	N	N	N	N	N
N	N	N	N	N	N	N	N	N	N	N	N	N	N	N	N	N	N	N	N
N	N	N	N	N	N	N	N	N	N	N	N	N	N	N	N	N	N	N	N
N	N	N	N	N	N	N	N	N	N	N	N	N	N	N	N	N	N	N	N
N	N	N	N	N	N	N	N	N	N	N	N	N	N	N	N	N	N	N	N
N	N	N	N	N	N	N	N	N	N	N	N	N	N	N	N	N	N	N	N
N	N	N	N	N	N	N	N	N	N	N	N	N	N	N	N	N	N	N	N
Goal																			
0	0	0	0	0	0	0	0	0	0	0	0	0	0	0	0	0	0	0	0
0	0	0	0	0	0	0	0	0	0	0	0	0	0	0	0	0	0	0	0
0	0	0	0	0	0	0	0	0	0	0	0	0	0	0	0	0	0	0	0
0	0	0	0	0	0	0	0	0	0	0	0	0	0	0	0	0	0	0	0
0	0	0	0	0	0	0	0	0	0	0	0	0	0	0	0	0	0	0	0
0	0	0	0	0	0	0	0	0	0	0	0	0	0	0	0	0	0	0	0
0	0	0	0	0	0	0	0	0	0	0	0	0	0	0	0	0	0	0	0
0	0	0	0	0	0	0	0	0	0	0	0	0	0	0	0	0	0	0	0
0	0	0	0	0	0	0	0	0	0	0	0	0	0	0	0	0	0	0	0
0	0	0	0	0	0	0	0	0	0	0	0	0	0	0	0	0	0	0	0
0	0	0	0	0	0	0	0	0	0	0	0	0	0	0	0	0	0	0	0
0	0	0	0	0	0	0	0	0	0	0	0	0	0	0	0	0	0	0	0
0	0	0	0	0	0	0	0	0	0	0	0	0	0	0	0	0	0	0	0
0	0	0	0	0	0	0	0	0	0	0	0	0	0	0	0	0	0	0	0
0	0	0	0	0	0	0	0	0	0	0	0	0	0	0	0	0	0	0	0
1	1	1	0	0	0	0	0	0	0	0	0	0	0	0	0	0	0	0	0
1	1	1	0	0	0	0	0	0	0	0	0	0	0	0	0	0	0	0	0
1	1	1	0	0	0	0	0	0	0	0	0	0	0	0	0	0	0	0	0
0	0	0	0	0	0	0	0	0	0	0	0	0	0	0	0	0	0	0	0
0	0	0	0	0	0	0	0	0	0	0	0	0	0	0	0	0	0	0	0
