sizex	sizey																		
20	5																		
Char	3																		
Ene	-1																		
Goal	ReachPoint																		
M	M	M	M	M	M	M	M	M	M	M	M	M	M	M	M	M	M	M	M
M	C1	F	C2	F	F	F	F	F	F	F	F	E3F	F	F	F	F	F	F	M
M	F	S	F	F	F	F	F	F	F	F	F	F	F	F	E1F	F	F	F	M
M	F	C3	F	F	F	F	F	F	E3F	F	F	F	F	F	F	F	F	F	M
M	M	M	M	M	M	M	M	M	M	M	M	M	M	M	M	M	M	M	M
MapSprite																			
9	9	9	9	9	9	9	9	9	9	9	9	9	9	9	9	9	9	9	9
9	0	0	0	0	0	0	0	0	0	0	0	0	0	0	0	0	5	5	9
9	0	0	0	0	0	0	0	0	0	0	0	0	0	0	0	0	5	5	9
9	0	0	0	0	0	0	0	0	0	0	0	0	0	0	0	0	5	5	9
9	9	9	9	9	9	9	9	9	9	9	9	9	9	9	9	9	9	9	9
SpecialBlock																			
N	N	N	N	N	N	N	N	N	N	N	N	N	N	N	N	N	N	N	N
N	N	N	N	N	N	N	N	N	N	N	N	N	N	N	N	N	N	N	N
N	N	N	N	N	N	N	N	N	N	N	N	N	N	N	N	N	N	N	N
N	N	N	N	N	N	N	N	N	N	N	N	N	N	N	N	N	N	N	N
N	N	N	N	N	N	N	N	N	N	N	N	N	N	N	N	N	N	N	N
Goal																			
0	0	0	0	0	0	0	0	0	0	0	0	0	0	0	0	0	0	0	0
0	0	0	0	0	0	0	0	0	0	0	0	0	0	0	0	0	1	1	0
0	0	0	0	0	0	0	0	0	0	0	0	0	0	0	0	0	1	1	0
0	0	0	0	0	0	0	0	0	0	0	0	0	0	0	0	0	1	1	0
0	0	0	0	0	0	0	0	0	0	0	0	0	0	0	0	0	0	0	0
																			
																			
																			
																			
																			
																			
																			
																			
																			
																			
																			
																			
																			
																			
																			
																			
																			
																			
																			
																			
																			
																			
																			
																			
																			
																			
																			
																			
																			
																			
																			
																			
																			
																			
																			
																			
																			
																			
																			
																			
